module gitlab.com/thesilk/todo-api

go 1.13

require (
	github.com/gorilla/handlers v1.4.2
	github.com/gorilla/mux v1.7.4
	github.com/jinzhu/gorm v1.9.12
	github.com/mingrammer/go-todo-rest-api-example v0.0.0-20190527014715-ae46b4d42804
)
